lista2/tb_ula.vcd
$date
  Tue Apr 13 14:26:36 2010
$end
$version
  GHDL v0
$end
$timescale
  1 fs
$end
$var reg 8 ! a[7:0] $end
$var reg 8 " b[7:0] $end
$var reg 8 # y[7:0] $end
$var reg 4 $ sel[3:0] $end
$var reg 1 % cin $end
$scope module e1 $end
$var reg 8 & a[7:0] $end
$var reg 8 ' b[7:0] $end
$var reg 4 ( sel[3:0] $end
$var reg 1 ) cin $end
$var reg 8 * y[7:0] $end
$upscope $end
$enddefinitions $end
#0
b00000000 !
b00000000 "
b00000000 #
b0000 $
0%
b00000000 &
b00000000 '
b0000 (
0)
b00000000 *
#1000000
b00000001 #
b0001 $
b0001 (
b00000001 *
#2000000
b11111111 #
b0010 $
b0010 (
b11111111 *
#3000000
b00000000 #
b0011 $
b0011 (
b00000000 *
#4000000
b00000001 #
b0100 $
b0100 (
b00000001 *
#5000000
b11111111 #
b0101 $
b0101 (
b11111111 *
#6000000
b00000000 #
b0110 $
b0110 (
b00000000 *
#7000000
b0111 $
b0111 (
#8000000
b11111111 #
b1000 $
b1000 (
b11111111 *
#9000000
b1001 $
b1001 (
#10000000
b00000000 #
b1010 $
b1010 (
b00000000 *
#11000000
b1011 $
b1011 (
#12000000
b11111111 #
b1100 $
b1100 (
b11111111 *
#13000000
b1101 $
b1101 (
#14000000
b00000000 #
b1110 $
b1110 (
b00000000 *
#15000000
b11111111 #
b1111 $
b1111 (
b11111111 *
